{
  "apiVersion": "tanka.dev/v1alpha1",
  "kind": "Environment",
  "metadata": {
    "name": "environments/evicted-pod-reaper/gprd"
  },
  "spec": {
    "apiServer": "https://35.243.230.38",
    "namespace": "evicted-pod-reaper",
    "injectLabels": true
  }
}
