{
  "apiVersion": "tanka.dev/v1alpha1",
  "kind": "Environment",
  "metadata": {
    "name": "environments/jaeger/pre"
  },
  "spec": {
    "apiServer": "https://104.196.63.202",
    "namespace": "jaeger",
    "injectLabels": true
  }
}
